    ___              __    _            __
   /   |  ____ ___  / /_  (_)________  / /_  ___  ________
  / /| | / __ `__ \/ __ \/ / ___/ __ \/ __ \/ _ \/ ___/ _ \
 / ___ |/ / / / / / /_/ / (__  ) /_/ / / / /  __/ /  /  __/
/_/  |_/_/ /_/ /_/_.___/_/____/ .___/_/ /_/\___/_/   \___/
                             /_/
